%YAML 1.1
%TAG !u! tag:unity3d.com,2011:
--- !u!1 &8808935774675997052
GameObject:
  m_ObjectHideFlags: 0
  m_CorrespondingSourceObject: {fileID: 0}
  m_PrefabInstance: {fileID: 0}
  m_PrefabAsset: {fileID: 0}
  serializedVersion: 6
  m_Component:
  - component: {fileID: 5689921934505928434}
  - component: {fileID: 5080367266711634655}
  m_Layer: 0
  m_Name: Unit 1
  m_TagString: Untagged
  m_Icon: {fileID: 0}
  m_NavMeshLayer: 0
  m_StaticEditorFlags: 0
  m_IsActive: 1
--- !u!4 &5689921934505928434
Transform:
  m_ObjectHideFlags: 0
  m_CorrespondingSourceObject: {fileID: 0}
  m_PrefabInstance: {fileID: 0}
  m_PrefabAsset: {fileID: 0}
  m_GameObject: {fileID: 8808935774675997052}
  m_LocalRotation: {x: 0, y: 0, z: 0, w: 1}
  m_LocalPosition: {x: 1.0912554, y: -0.041720144, z: 0}
  m_LocalScale: {x: 1, y: 1, z: 1}
  m_Children:
  - {fileID: 5541592460723501899}
  m_Father: {fileID: 0}
  m_RootOrder: 0
  m_LocalEulerAnglesHint: {x: 0, y: 0, z: 0}
--- !u!114 &5080367266711634655
MonoBehaviour:
  m_ObjectHideFlags: 0
  m_CorrespondingSourceObject: {fileID: 0}
  m_PrefabInstance: {fileID: 0}
  m_PrefabAsset: {fileID: 0}
  m_GameObject: {fileID: 8808935774675997052}
  m_Enabled: 1
  m_EditorHideFlags: 0
  m_Script: {fileID: 11500000, guid: 7f6833f5a9d8b1a49bc9ebf7db26486f, type: 3}
  m_Name: 
  m_EditorClassIdentifier: 
  complete: 0
  items:
  - {fileID: 3943583838298959552}
--- !u!1001 &5456941547358104252
PrefabInstance:
  m_ObjectHideFlags: 0
  serializedVersion: 2
  m_Modification:
    m_TransformParent: {fileID: 5689921934505928434}
    m_Modifications:
    - target: {fileID: 9007375140188472444, guid: 8def1f97573ed944295b6fa32fd3ed81,
        type: 3}
      propertyPath: m_Name
      value: longBox
      objectReference: {fileID: 0}
    - target: {fileID: 530654649690198519, guid: 8def1f97573ed944295b6fa32fd3ed81,
        type: 3}
      propertyPath: m_LocalPosition.x
      value: -1.5192554
      objectReference: {fileID: 0}
    - target: {fileID: 530654649690198519, guid: 8def1f97573ed944295b6fa32fd3ed81,
        type: 3}
      propertyPath: m_LocalPosition.y
      value: -0.860742
      objectReference: {fileID: 0}
    - target: {fileID: 530654649690198519, guid: 8def1f97573ed944295b6fa32fd3ed81,
        type: 3}
      propertyPath: m_LocalPosition.z
      value: 0
      objectReference: {fileID: 0}
    - target: {fileID: 530654649690198519, guid: 8def1f97573ed944295b6fa32fd3ed81,
        type: 3}
      propertyPath: m_LocalRotation.x
      value: -0
      objectReference: {fileID: 0}
    - target: {fileID: 530654649690198519, guid: 8def1f97573ed944295b6fa32fd3ed81,
        type: 3}
      propertyPath: m_LocalRotation.y
      value: -0
      objectReference: {fileID: 0}
    - target: {fileID: 530654649690198519, guid: 8def1f97573ed944295b6fa32fd3ed81,
        type: 3}
      propertyPath: m_LocalRotation.z
      value: -0
      objectReference: {fileID: 0}
    - target: {fileID: 530654649690198519, guid: 8def1f97573ed944295b6fa32fd3ed81,
        type: 3}
      propertyPath: m_LocalRotation.w
      value: 1
      objectReference: {fileID: 0}
    - target: {fileID: 530654649690198519, guid: 8def1f97573ed944295b6fa32fd3ed81,
        type: 3}
      propertyPath: m_RootOrder
      value: 0
      objectReference: {fileID: 0}
    - target: {fileID: 530654649690198519, guid: 8def1f97573ed944295b6fa32fd3ed81,
        type: 3}
      propertyPath: m_LocalEulerAnglesHint.x
      value: 0
      objectReference: {fileID: 0}
    - target: {fileID: 530654649690198519, guid: 8def1f97573ed944295b6fa32fd3ed81,
        type: 3}
      propertyPath: m_LocalEulerAnglesHint.y
      value: 0
      objectReference: {fileID: 0}
    - target: {fileID: 530654649690198519, guid: 8def1f97573ed944295b6fa32fd3ed81,
        type: 3}
      propertyPath: m_LocalEulerAnglesHint.z
      value: 0
      objectReference: {fileID: 0}
    - target: {fileID: 530654649690198519, guid: 8def1f97573ed944295b6fa32fd3ed81,
        type: 3}
      propertyPath: m_LocalScale.x
      value: 34.494457
      objectReference: {fileID: 0}
    m_RemovedComponents: []
  m_SourcePrefab: {fileID: 100100000, guid: 8def1f97573ed944295b6fa32fd3ed81, type: 3}
--- !u!1 &3943583838298959552 stripped
GameObject:
  m_CorrespondingSourceObject: {fileID: 9007375140188472444, guid: 8def1f97573ed944295b6fa32fd3ed81,
    type: 3}
  m_PrefabInstance: {fileID: 5456941547358104252}
  m_PrefabAsset: {fileID: 0}
--- !u!4 &5541592460723501899 stripped
Transform:
  m_CorrespondingSourceObject: {fileID: 530654649690198519, guid: 8def1f97573ed944295b6fa32fd3ed81,
    type: 3}
  m_PrefabInstance: {fileID: 5456941547358104252}
  m_PrefabAsset: {fileID: 0}
