%YAML 1.1
%TAG !u! tag:unity3d.com,2011:
--- !u!1045 &1
EditorBuildSettings:
  m_ObjectHideFlags: 0
  serializedVersion: 2
  m_Scenes:
  - enabled: 1
    path: Assets/Scenes/newMenu.unity
    guid: d4c42d969dd1db246bfd4ad7a7551d00
  - enabled: 1
    path: Assets/Scenes/SampleScene.unity
    guid: 581e8f560beb3b542abed7e1b4d211cf
  - enabled: 1
    path: Assets/Scenes/Menu.unity
    guid: 8936a202efac9194dbe451c7ef7e941c
  m_configObjects: {}
